<svg width="60" height="40" viewBox="0 0 60 40" fill="none" xmlns="http://www.w3.org/2000/svg" xmlns:xlink="http://www.w3.org/1999/xlink">
<rect width="60" height="40" fill="url(#pattern0)"/>
<defs>
<pattern id="pattern0" patternContentUnits="objectBoundingBox" width="1" height="1">
<use xlink:href="#image0" transform="scale(0.0166667 0.025)"/>
</pattern>
<image id="image0" width="60" height="40" xlink:href="data:image/png;base64,iVBORw0KGgoAAAANSUhEUgAAADwAAAAoCAYAAACiu5n/AAAACXBIWXMAAAsTAAALEwEAmpwYAAAAAXNSR0IArs4c6QAAAARnQU1BAACxjwv8YQUAAABUSURBVHgB7dhBAYAgAMBAMJFFLGNCi1jCAtJj3DXYd/O6n39s5BibEVwnuE5wneA6wXWC6wTXCa4TXDe/9/S0ygTXCa4TXCe4TnCd4DrBdYLrBNctHpsFy1GItGEAAAAASUVORK5CYII="/>
</defs>
</svg>


