<svg width="43" height="48" viewBox="0 0 43 48" fill="none" xmlns="http://www.w3.org/2000/svg">
<path d="M32.8193 26.2998C32.8193 26.2998 32.1715 26.2998 31.9707 26.2998L31.8156 34.7998L27.9014 32.3998L24.9908 37.3998L20.9762 34.7998L16.9616 37.3998L14.0511 32.3998L10.1368 34.7998V26.2998C9.93611 26.2998 9.13319 26.2998 9.13319 26.2998C4.01459 26.2998 0 29.9998 0 34.4998V41.9998C6.02189 45.7998 13.2481 47.9998 21.0766 47.9998C28.9051 47.9998 36.1313 45.7998 42.0528 41.9998V34.4998C42.0528 29.9998 37.8375 26.2998 32.8193 26.2998Z" fill="white"/>
<path d="M21.077 24.8C25.8945 24.8 29.8087 20.4 30.6116 14.6C31.2138 13.3 31.5149 11.8 31.5149 10.4C31.5149 4.69999 26.7978 0 21.077 0C15.3562 0 10.639 4.69999 10.639 10.4C10.639 11.9 10.9401 13.3 11.5423 14.6C12.2449 20.4 16.2595 24.8 21.077 24.8ZM13.65 10.3C14.3525 8.89998 15.9584 7.19999 19.3708 6.49999C20.3744 7.59999 22.9839 10.1 26.6974 10.1C27.2996 10.1 27.8014 9.99998 28.4036 9.89998C28.6043 10.8 28.7047 11.7 28.7047 12.6C28.7047 18.2 25.2923 22.7 21.077 22.7C16.8617 22.7 13.4493 18.2 13.4493 12.6C13.4493 11.9 13.4493 11.1 13.65 10.3Z" fill="white"/>
<path d="M12.2626 27.1527C11.9123 26.6271 10.6568 26.3497 10.0729 26.2768L7.00717 28.2476C6.35024 31.0213 4.99258 36.9191 4.8174 38.3206C4.59842 40.0724 6.35024 40.5103 7.00717 41.1673C7.53272 41.6928 19.9269 41.2403 26.0582 40.9483L34.3794 36.1308C33.9414 32.8461 32.8465 26.1016 31.9706 26.2768C31.1021 26.4505 30.0182 27.7151 29.573 28.2345L29.5619 28.2476C28.9049 28.9045 26.2772 30.2184 21.0217 30.2184C14.4524 30.2184 12.7006 27.8096 12.2626 27.1527Z" fill="white"/>
<path d="M18.207 18.3945C19.1303 19.386 21.5615 20.7741 23.9005 18.3945" stroke="white" stroke-linecap="round" stroke-linejoin="round"/>
<rect x="24.5253" y="35.9131" width="11.3868" height="5.02361" rx="2" fill="#5D646B"/>
<circle cx="27.7058" cy="38.4241" r="1.17217" fill="white"/>
<rect x="30.2166" y="37.5869" width="2.34435" height="0.669814" fill="white"/>
<rect x="30.2166" y="38.5918" width="3.68398" height="0.669814" fill="white"/>
<rect x="29.343" y="34.5986" width="1.75182" height="1.31387" fill="#5D646B"/>
</svg>
