<svg width="13" height="20" viewBox="0 0 13 20" fill="none" xmlns="http://www.w3.org/2000/svg">
<path d="M0.886197 16.6484L0.886604 16.648L7.26387 10.2497L7.51055 10.0022L7.26347 9.75514L0.865151 3.35683C0.180998 2.67267 0.180999 1.54727 0.865151 0.863114C1.5493 0.17896 2.67471 0.17896 3.35886 0.863115L11.2515 8.75577C11.5834 9.08762 11.7594 9.52371 11.7594 10.0026C11.7594 10.4722 11.5689 10.9129 11.2479 11.2531L3.38305 19.139C3.02673 19.4759 2.56697 19.65 2.13305 19.65C1.67992 19.65 1.24055 19.4771 0.883041 19.139C0.202046 18.4545 0.203098 17.3315 0.886197 16.6484Z" fill="#FBFBFB" stroke="#4F5464" stroke-width="0.7"/>
</svg>
