<svg width="52" height="49" viewBox="0 0 52 49" fill="none" xmlns="http://www.w3.org/2000/svg">
<path d="M6.90055 12.3389C7.5766 12.3389 8.23283 12.1105 8.76285 11.6909L22.4544 0.84996C24.421 -0.707242 27.3167 0.693428 27.3167 3.20195V45.7981C27.3167 48.3066 24.421 49.7072 22.4544 48.15L8.76285 37.3091C8.23283 36.8895 7.5766 36.6611 6.90055 36.6611H3C1.34315 36.6611 0 35.318 0 33.6611V15.3389C0 13.682 1.34315 12.3389 3 12.3389H6.90055ZM51.1892 19.9467C51.574 19.5574 51.5743 18.9312 51.1899 18.5415L48.1293 15.439C47.7396 15.0439 47.1027 15.0418 46.7103 15.4342L42.8738 19.2707C42.4833 19.6612 41.8501 19.6612 41.4596 19.2707L37.6182 15.4293C37.2277 15.0388 36.5945 15.0388 36.204 15.4293L33.096 18.5373C32.7055 18.9279 32.7055 19.561 33.096 19.9516L36.9373 23.7929C37.3279 24.1834 37.3279 24.8166 36.9373 25.2071L33.096 29.0484C32.7055 29.439 32.7055 30.0721 33.096 30.4627L36.204 33.5707C36.5945 33.9612 37.2277 33.9612 37.6182 33.5707L41.4596 29.7293C41.8501 29.3388 42.4833 29.3388 42.8738 29.7293L46.7151 33.5707C47.1056 33.9612 47.7388 33.9612 48.1293 33.5707L51.2373 30.4627C51.6279 30.0721 51.6279 29.439 51.2373 29.0484L47.3919 25.203C47.003 24.8141 47.0011 24.1841 47.3878 23.7929L51.1892 19.9467Z" fill="#FBFBFB"/>
</svg>
