<svg width="201" height="184" viewBox="0 0 201 184" fill="none" xmlns="http://www.w3.org/2000/svg">
<path d="M31.5 13C31.5 9.41015 34.4101 6.5 38 6.5H139.743C143.333 6.5 146.243 9.41015 146.243 13V178C146.243 178.828 145.572 179.5 144.743 179.5H53C41.1259 179.5 31.5 169.874 31.5 158V13Z" fill="#D1D1D1" fill-opacity="0.05" stroke="#A6ACBB" stroke-width="7"/>
<path d="M63.4965 146.043C63.4965 142.453 66.4067 139.543 69.9965 139.543H162.375C165.965 139.543 168.875 142.453 168.875 146.043V162.875C168.875 172.028 161.425 179.432 152.273 179.375L54.3305 178.769L57.3886 175.702C58.9903 174.096 60.283 172.209 61.2021 170.135L62.3387 167.57C63.1021 165.848 63.4965 163.984 63.4965 162.1V146.043Z" fill="#F9F9FB" stroke="#A6ACBB" stroke-width="7"/>
<path d="M87.3047 66.2988V63.2988C83.6172 63.0801 80.7266 62.1035 78.6328 60.3691C76.5234 58.6191 75.4609 56.3066 75.4453 53.4316H82.1484C82.2266 54.6504 82.7344 55.6738 83.6719 56.502C84.6094 57.3301 85.8203 57.8223 87.3047 57.9785V48.8379L84.8203 48.252C79.0391 46.9082 76.1484 43.7598 76.1484 38.8066C76.1484 35.9316 77.1328 33.6191 79.1016 31.8691C81.0547 30.1035 83.7891 29.0801 87.3047 28.7988V25.5879H90.6094V28.8223C93.8906 29.1191 96.5156 30.1582 98.4844 31.9395C100.438 33.7051 101.438 35.9395 101.484 38.6426H94.9688C94.9375 37.5332 94.5156 36.5645 93.7031 35.7363C92.8906 34.9082 91.8594 34.4082 90.6094 34.2363V42.9785L93.1172 43.4707C99.1172 44.7832 102.117 47.9551 102.117 52.9863C102.117 55.9551 101.117 58.3379 99.1172 60.1348C97.1328 61.916 94.2969 62.9629 90.6094 63.2754V66.2988H87.3047ZM95.4844 53.7363C95.4844 51.502 93.8594 50.0645 90.6094 49.4238V58.002C92.1406 57.9082 93.3359 57.4863 94.1953 56.7363C95.0547 55.9863 95.4844 54.9863 95.4844 53.7363ZM82.9219 38.2207C82.9219 40.3145 84.3828 41.6738 87.3047 42.2988V34.2129C86.0234 34.291 84.9766 34.6973 84.1641 35.4316C83.3359 36.1816 82.9219 37.1113 82.9219 38.2207Z" fill="#A6ACBB"/>
<rect opacity="0.5" x="46.7305" y="93.7832" width="46.8243" height="9.3913" rx="4.69565" fill="#C4C4C4"/>
<rect opacity="0.5" x="46.7305" y="112.564" width="51.5067" height="9.3913" rx="4.69565" fill="#C4C4C4"/>
<rect opacity="0.5" x="104.48" y="93.7832" width="26.5338" height="9.3913" rx="4.69565" fill="#C4C4C4"/>
<rect opacity="0.5" x="113.848" y="112.564" width="17.1689" height="9.3913" rx="4.69565" fill="#C4C4C4"/>
<rect x="8.09679" y="0.706275" width="259" height="11" rx="5.5" transform="rotate(42.2203 8.09679 0.706275)" fill="#F51D20" stroke="white"/>
</svg>
