<svg width="49" height="125" viewBox="0 0 49 125" fill="none" xmlns="http://www.w3.org/2000/svg">
<path d="M34.2872 31.9146V7.17411C34.2872 5.27801 33.5303 3.45901 32.1818 2.11469C30.8334 0.770377 29.0031 0.0100856 27.0911 0H21.9602C20.0415 0 18.2013 0.755841 16.8446 2.10125C15.4879 3.44665 14.7257 5.27142 14.7257 7.17411V31.9146C10.3745 33.8128 6.66943 36.9179 4.05679 40.8561C1.44416 44.7942 0.0353353 49.3973 0 54.1111V123.385C0 123.813 0.171633 124.224 0.477141 124.527C0.782648 124.83 1.19701 125 1.62906 125H47.3581C47.5731 125.002 47.7863 124.961 47.9855 124.881C48.1846 124.8 48.3657 124.681 48.5183 124.531C48.671 124.381 48.7921 124.202 48.8748 124.006C48.9574 123.809 49 123.598 49 123.385V54.1111C48.9658 49.3987 47.5588 44.7966 44.9486 40.8586C42.3383 36.9206 38.636 33.8147 34.2872 31.9146V31.9146ZM3.25812 68.4848H45.7291V98.0462H3.25812V68.4848ZM21.9602 3.24361H27.0911C28.1423 3.24361 29.1505 3.65772 29.8938 4.39483C30.6371 5.13194 31.0547 6.13168 31.0547 7.17411V17.2611H17.9709V7.17411C17.9709 6.6558 18.0743 6.14261 18.2751 5.66407C18.4759 5.18554 18.7701 4.75111 19.1409 4.3858C19.5117 4.02048 19.9517 3.73149 20.4355 3.53547C20.9194 3.33945 21.4375 3.24026 21.9602 3.24361V3.24361ZM16.9191 34.4459C17.1042 34.3715 17.2739 34.2636 17.4194 34.1279V34.1279C17.5711 33.9829 17.6931 33.8101 17.7785 33.6191V33.6191C17.8249 33.4919 17.855 33.3594 17.8683 33.2248C17.874 33.1486 17.874 33.072 17.8683 32.9958V20.5302H31.0162V32.9449C31.0162 32.9449 31.0162 32.9449 31.0162 33.034C31.0391 33.3357 31.1476 33.6248 31.3292 33.8679C31.5108 34.111 31.758 34.2981 32.0424 34.4077V34.4077C36.0566 35.9471 39.5098 38.6506 41.9513 42.1654C44.3928 45.6802 45.7093 49.8432 45.7291 54.1111V65.2411H3.25812V54.1111C3.2818 49.8522 4.59744 45.699 7.03387 42.1918C9.4703 38.6845 12.9147 35.9855 16.9191 34.4459V34.4459ZM3.25812 121.731V101.29H45.7291V121.731H3.25812Z" fill="#4F5464"/>
<path d="M19 40.5C15.5 41.6667 8.5 46.3 8.5 55.5" stroke="#4F5464" stroke-width="3" stroke-linecap="round"/>
</svg>
