<svg width="42" height="42" viewBox="0 0 42 42" fill="none" xmlns="http://www.w3.org/2000/svg">
<path d="M27.0278 3.91667V3.66667H29.2267C29.4025 3.66624 29.5766 3.70057 29.7391 3.76769C29.9015 3.83481 30.0491 3.9334 30.1733 4.05778L37.9422 11.8267C38.0666 11.9509 38.1652 12.0985 38.2323 12.2609C38.2994 12.4234 38.3338 12.5975 38.3333 12.7733V37C38.3333 37.3536 38.1929 37.6928 37.9428 37.9428C37.6928 38.1929 37.3536 38.3333 37 38.3333H35.0278V38.0833M27.0278 3.91667H26.7778V11.2222C26.7778 12.0473 26.45 12.8387 25.8666 13.4221C25.2831 14.0056 24.4918 14.3333 23.6667 14.3333H10.3333C9.50822 14.3333 8.71689 14.0056 8.13345 13.4221C7.55 12.8387 7.22222 12.0473 7.22222 11.2222V3.91667H6.97222M27.0278 3.91667L29.2267 3.91667L29.2273 3.91667C29.3701 3.91632 29.5116 3.94421 29.6436 3.99875C29.7756 4.05329 29.8955 4.13339 29.9964 4.23444L29.9966 4.23455L37.7654 12.0034L37.7656 12.0036C37.8666 12.1045 37.9467 12.2244 38.0013 12.3564C38.0558 12.4884 38.0837 12.6299 38.0833 12.7727V12.7733V37C38.0833 37.2873 37.9692 37.5629 37.766 37.766C37.5629 37.9692 37.2873 38.0833 37 38.0833H35.0278M27.0278 3.91667V11.2222C27.0278 12.1136 26.6737 12.9686 26.0433 13.5989C25.413 14.2292 24.5581 14.5833 23.6667 14.5833H10.3333C9.44191 14.5833 8.587 14.2292 7.95667 13.5989C7.32634 12.9686 6.97222 12.1136 6.97222 11.2222V3.91667M6.97222 3.91667V3.66667H5C4.64638 3.66667 4.30724 3.80714 4.05719 4.05719C3.80714 4.30724 3.66667 4.64638 3.66667 5V37C3.66667 37.3536 3.80714 37.6928 4.05719 37.9428C4.30724 38.1929 4.64638 38.3333 5 38.3333H6.97222V38.0833M6.97222 3.91667H5C4.71268 3.91667 4.43713 4.0308 4.23397 4.23397C4.0308 4.43713 3.91667 4.71268 3.91667 5V37C3.91667 37.2873 4.0308 37.5629 4.23397 37.766C4.43713 37.9692 4.71268 38.0833 5 38.0833H6.97222M6.97222 38.0833H7.22222V25.8889C7.22222 25.0638 7.55 24.2724 8.13345 23.689C8.71689 23.1056 9.50822 22.7778 10.3333 22.7778H31.6667C32.4918 22.7778 33.2831 23.1056 33.8666 23.689C34.45 24.2724 34.7778 25.0638 34.7778 25.8889V38.0833H35.0278M6.97222 38.0833V25.8889C6.97222 24.9975 7.32634 24.1426 7.95667 23.5122C8.587 22.8819 9.44191 22.5278 10.3333 22.5278H31.6667C32.5581 22.5278 33.413 22.8819 34.0433 23.5122C34.6737 24.1426 35.0278 24.9975 35.0278 25.8889V38.0833M30.8548 1.07383C31.3709 1.28773 31.8397 1.60128 32.2346 1.99656L30.8548 1.07383ZM30.8548 1.07383C30.3386 0.85992 29.7854 0.749878 29.2267 0.75M30.8548 1.07383L29.2267 0.75M29.2267 0.75C29.2266 0.75 29.2266 0.75 29.2266 0.75M29.2267 0.75L29.2266 0.75M29.2266 0.75L5 0.75C3.87283 0.75 2.79183 1.19777 1.9948 1.9948C1.19777 2.79183 0.75 3.87283 0.75 5V37C0.75 38.1272 1.19777 39.2082 1.9948 40.0052C2.79183 40.8022 3.87283 41.25 5 41.25H37C38.1272 41.25 39.2082 40.8022 40.0052 40.0052C40.8022 39.2082 41.25 38.1272 41.25 37V12.7733C41.2501 12.2147 41.1401 11.6614 40.9262 11.1452C40.7123 10.6291 40.3987 10.1603 40.0034 9.76545L29.2266 0.75ZM40.0033 9.76534L32.2347 1.99667L40.0033 9.76534ZM23.8611 3.91667V11.2222C23.8611 11.2738 23.8406 11.3233 23.8042 11.3597C23.7677 11.3962 23.7182 11.4167 23.6667 11.4167H10.3333C10.2818 11.4167 10.2323 11.3962 10.1958 11.3597C10.1594 11.3233 10.1389 11.2738 10.1389 11.2222V3.91667H23.8611ZM10.1389 38.0833V25.8889C10.1389 25.8373 10.1594 25.7879 10.1958 25.7514C10.2323 25.7149 10.2818 25.6944 10.3333 25.6944H31.6667C31.7182 25.6944 31.7677 25.7149 31.8042 25.7514C31.8406 25.7879 31.8611 25.8373 31.8611 25.8889V38.0833H10.1389Z" fill="#212121" stroke="#212121" stroke-width="0.5"/>
</svg>
