<svg width="216" height="230" viewBox="0 0 216 230" fill="none" xmlns="http://www.w3.org/2000/svg">
<path opacity="0.6" d="M66.2443 191.315L74.1936 172.236H139.378L147.327 191.315H66.2443Z" fill="#C67575"/>
<path d="M67.834 186.544L72.0736 176.475H141.498L145.737 186.544H67.834Z" fill="#C67575"/>
<rect x="11.0392" y="11.041" width="192.023" height="91.3318" rx="8.5" fill="#E7E7E7" stroke="#5D646B" stroke-width="3"/>
<rect x="2" y="2" width="211.161" height="109.41" rx="8" stroke="#5D646B" stroke-width="4"/>
<path d="M49.3196 137.787H40.8488C34.0937 137.787 28.302 142.611 27.0798 149.254L12.7191 227.316" stroke="#5D646B" stroke-width="5" stroke-linecap="round"/>
<path d="M164.948 137.787H173.419C180.174 137.787 185.965 142.611 187.188 149.254L201.548 227.316" stroke="#5D646B" stroke-width="5" stroke-linecap="round"/>
<line x1="13.0993" y1="227.498" x2="201.002" y2="227.498" stroke="#5D646B" stroke-width="5" stroke-linecap="round"/>
<path d="M46.6362 137.789L169.585 137.77" stroke="#5D646B" stroke-width="5"/>
<path d="M106.859 161.105H78.0074L60.4147 204.032H106.859" stroke="#5D646B" stroke-width="2"/>
<path d="M106.86 161.105H135.712L153.304 204.032H106.86" stroke="#5D646B" stroke-width="2"/>
<rect x="1.5" y="-1.5" width="151.495" height="54.1292" transform="matrix(1 0 0 -1 29.6773 102.887)" fill="white" stroke="#5D646B" stroke-width="3"/>
<path d="M61.3048 152.627L30.5881 105.885H183.255L153.455 152.627H61.3048Z" fill="white" stroke="#5D646B" stroke-width="2" stroke-linejoin="round"/>
<line y1="-0.5" x2="31.2984" y2="-0.5" transform="matrix(0.575699 0.817662 -0.575699 0.817662 31.7972 51.7676)" stroke="#5D646B"/>
<line y1="-0.5" x2="31.2984" y2="-0.5" transform="matrix(0.575699 -0.817662 0.575699 0.817662 31.7972 102.951)" stroke="#5D646B"/>
<line y1="-0.5" x2="31.2984" y2="-0.5" transform="matrix(-0.575699 0.817662 0.575699 0.817662 182.304 51.7676)" stroke="#5D646B"/>
<line y1="-0.5" x2="31.2984" y2="-0.5" transform="matrix(-0.575699 -0.817662 -0.575699 0.817662 182.304 102.951)" stroke="#5D646B"/>
<line x1="49.8156" y1="76.8574" x2="164.286" y2="76.8574" stroke="#5D646B"/>
<path d="M121.412 114.471H93.7487C92.9013 114.471 92.2119 115.16 92.2119 116.008V142.647C92.2119 143.494 92.9013 144.183 93.7487 144.183H121.412C122.26 144.183 122.949 143.494 122.949 142.647V116.008C122.949 115.16 122.26 114.471 121.412 114.471Z" fill="#EBEBEC"/>
<path d="M95.7985 141.619C95.5156 141.619 95.2863 141.39 95.2863 141.107V117.542C95.2863 117.259 95.5156 117.029 95.7985 117.029C96.0814 117.029 96.3108 117.259 96.3108 117.542V141.107C96.3109 141.39 96.0815 141.619 95.7985 141.619Z" fill="#5D646B"/>
<path d="M97.2984 139.784C96.9863 139.784 96.7333 139.528 96.7333 139.213V117.528C96.7333 117.212 96.9863 116.957 97.2984 116.957C97.6104 116.957 97.8634 117.213 97.8634 117.528V139.213C97.8635 139.529 97.6104 139.784 97.2984 139.784Z" fill="#5D646B"/>
<path d="M98.8803 139.784C98.5683 139.784 98.3153 139.528 98.3153 139.213V117.528C98.3153 117.212 98.5683 116.957 98.8803 116.957C99.1923 116.957 99.4454 117.213 99.4454 117.528V139.213C99.4454 139.529 99.1924 139.784 98.8803 139.784Z" fill="#5D646B"/>
<path d="M100.462 139.784C100.15 139.784 99.8973 139.528 99.8973 139.213V117.528C99.8973 117.212 100.15 116.957 100.462 116.957C100.774 116.957 101.027 117.213 101.027 117.528V139.213C101.027 139.529 100.774 139.784 100.462 139.784Z" fill="#5D646B"/>
<path d="M102.949 139.784C102.636 139.784 102.383 139.528 102.383 139.213V117.528C102.383 117.212 102.636 116.957 102.949 116.957C103.261 116.957 103.514 117.213 103.514 117.528V139.213C103.514 139.529 103.261 139.784 102.949 139.784Z" fill="#5D646B"/>
<path d="M104.53 139.784C104.218 139.784 103.965 139.528 103.965 139.213V117.528C103.965 117.212 104.218 116.957 104.53 116.957C104.843 116.957 105.096 117.213 105.096 117.528V139.213C105.096 139.529 104.843 139.784 104.53 139.784Z" fill="#5D646B"/>
<path d="M106 139.784C105.75 139.784 105.548 139.528 105.548 139.213V117.528C105.548 117.212 105.75 116.957 106 116.957C106.249 116.957 106.452 117.213 106.452 117.528V139.213C106.452 139.529 106.249 139.784 106 139.784Z" fill="#5D646B"/>
<path d="M107.582 139.784C107.332 139.784 107.13 139.528 107.13 139.213V117.528C107.13 117.212 107.332 116.957 107.582 116.957C107.831 116.957 108.034 117.213 108.034 117.528V139.213C108.034 139.529 107.831 139.784 107.582 139.784Z" fill="#5D646B"/>
<path d="M109.164 139.784C108.914 139.784 108.712 139.528 108.712 139.213V117.528C108.712 117.212 108.914 116.957 109.164 116.957C109.413 116.957 109.616 117.213 109.616 117.528V139.213C109.616 139.529 109.413 139.784 109.164 139.784Z" fill="#5D646B"/>
<path d="M110.633 139.784C110.321 139.784 110.068 139.528 110.068 139.213V117.528C110.068 117.212 110.321 116.957 110.633 116.957C110.945 116.957 111.198 117.213 111.198 117.528V139.213C111.198 139.529 110.945 139.784 110.633 139.784Z" fill="#5D646B"/>
<path d="M113.232 139.784C112.982 139.784 112.78 139.528 112.78 139.213V117.528C112.78 117.212 112.982 116.957 113.232 116.957C113.481 116.957 113.684 117.213 113.684 117.528V139.213C113.684 139.529 113.481 139.784 113.232 139.784Z" fill="#5D646B"/>
<path d="M114.701 139.784C114.389 139.784 114.136 139.528 114.136 139.213V117.528C114.136 117.212 114.389 116.957 114.701 116.957C115.013 116.957 115.266 117.213 115.266 117.528V139.213C115.266 139.529 115.013 139.784 114.701 139.784Z" fill="#5D646B"/>
<path d="M116.283 139.784C115.971 139.784 115.718 139.528 115.718 139.213V117.528C115.718 117.212 115.971 116.957 116.283 116.957C116.595 116.957 116.848 117.213 116.848 117.528V139.213C116.848 139.529 116.595 139.784 116.283 139.784Z" fill="#5D646B"/>
<path d="M117.865 139.784C117.553 139.784 117.3 139.528 117.3 139.213V117.528C117.3 117.212 117.553 116.957 117.865 116.957C118.177 116.957 118.43 117.213 118.43 117.528V139.213C118.43 139.529 118.177 139.784 117.865 139.784Z" fill="#5D646B"/>
<path d="M119.364 141.623C119.081 141.623 118.851 141.394 118.851 141.111V117.545C118.851 117.263 119.081 117.033 119.364 117.033C119.646 117.033 119.876 117.263 119.876 117.545V141.111C119.876 141.394 119.646 141.623 119.364 141.623Z" fill="#5D646B"/>
<path d="M122.437 123.693H92.7241C92.4411 123.693 92.2118 123.923 92.2118 124.206V126.255C92.2118 126.538 92.4412 126.767 92.7241 126.767H122.437C122.72 126.767 122.949 126.538 122.949 126.255V124.206C122.949 123.923 122.72 123.693 122.437 123.693Z" fill="#C67575"/>
<circle cx="97.297" cy="141.028" r="0.565024" fill="#5D646B"/>
<circle cx="98.8791" cy="141.028" r="0.565024" fill="#5D646B"/>
<circle cx="100.461" cy="141.028" r="0.565024" fill="#5D646B"/>
<circle cx="102.947" cy="141.028" r="0.565024" fill="#5D646B"/>
<circle cx="104.529" cy="141.028" r="0.565024" fill="#5D646B"/>
<circle cx="105.998" cy="141.14" r="0.452019" fill="#5D646B"/>
<circle cx="107.58" cy="141.14" r="0.452019" fill="#5D646B"/>
<circle cx="109.163" cy="141.14" r="0.452019" fill="#5D646B"/>
<circle cx="113.231" cy="141.14" r="0.452019" fill="#5D646B"/>
<circle cx="110.632" cy="141.028" r="0.565024" fill="#5D646B"/>
<circle cx="114.7" cy="141.028" r="0.565024" fill="#5D646B"/>
<circle cx="116.282" cy="141.028" r="0.565024" fill="#5D646B"/>
<circle cx="117.864" cy="141.028" r="0.565024" fill="#5D646B"/>
<path opacity="0.35" d="M107.58 173.826L92.435 126.13H122.726L107.58 173.826Z" fill="#C67575"/>
</svg>
