<svg width="147" height="240" viewBox="0 0 147 240" fill="none" xmlns="http://www.w3.org/2000/svg">
<path d="M66.8508 226.563C43.827 226.563 26.1209 224.528 15.3687 222.783C11.1028 222.084 7.18763 219.932 4.3827 216.617C1.57777 213.359 0 209.171 0 204.867V21.6384C0 17.334 1.51934 13.1459 4.32427 9.88852C7.1292 6.63112 11.0444 4.42075 15.3102 3.72274C25.9456 2.03588 43.5348 0 66.8508 0C87.3619 0 106.12 2.15221 118.216 4.01358C122.54 4.65343 126.456 6.80563 129.319 10.1212C132.182 13.4368 133.702 17.6248 133.702 21.9292V204.634C133.702 208.997 132.124 213.185 129.319 216.442C126.456 219.758 122.54 221.91 118.216 222.55C106.237 224.411 87.6541 226.563 66.8508 226.563ZM66.8508 8.43432C44.1192 8.43432 27.0559 10.412 16.6543 12.0989C11.8625 12.8551 8.41479 16.9268 8.41479 21.6966V204.925C8.41479 209.753 11.8625 213.766 16.6543 214.523C27.1728 216.21 44.353 218.187 66.7924 218.187C87.0697 218.187 105.185 216.093 116.872 214.29C121.722 213.534 125.228 209.52 125.228 204.634V21.9292C125.228 17.1595 121.664 13.0296 116.931 12.2734C105.126 10.5284 86.836 8.43432 66.8508 8.43432Z" fill="#A6ACBB"/>
<path d="M66.8501 126.166C49.4946 126.166 36.1712 124.595 28.0486 123.315C20.861 122.152 15.6602 116.103 15.6602 108.832V8.02694C15.6602 5.70023 17.5301 3.83887 19.8676 3.83887C22.205 3.83887 24.0749 5.70023 24.0749 8.02694V108.89C24.0749 111.973 26.2955 114.59 29.3926 115.056C37.2231 116.277 50.079 117.789 66.8501 117.789C81.9851 117.789 95.5422 116.219 104.249 114.881C107.346 114.416 109.625 111.798 109.625 108.715V8.20145C109.625 5.87474 111.495 4.01337 113.833 4.01337C116.17 4.01337 118.04 5.87474 118.04 8.20145V108.657C118.04 112.147 116.755 115.579 114.475 118.197C112.196 120.872 108.982 122.617 105.535 123.141C96.4772 124.537 82.511 126.166 66.8501 126.166Z" fill="#A6ACBB"/>
<path d="M129.436 213.883C127.333 213.883 125.521 212.312 125.229 210.16C124.937 207.833 126.573 205.739 128.911 205.507C129.787 205.39 130.488 205.332 131.131 205.216C135.338 204.576 138.436 201.028 138.436 196.781V29.8399C138.436 25.6519 135.28 22.0455 131.19 21.4056C130.547 21.2893 129.787 21.2311 128.911 21.1148C126.573 20.8239 124.937 18.7299 125.229 16.4614C125.521 14.1346 127.625 12.5059 129.904 12.7968C130.839 12.9131 131.715 13.0295 132.417 13.1458C136.449 13.7275 140.13 15.7633 142.76 18.8462C145.39 21.9291 146.85 25.8264 146.85 29.8981V196.781C146.85 200.853 145.39 204.75 142.76 207.833C140.13 210.916 136.449 212.952 132.417 213.534C131.715 213.65 130.839 213.766 129.904 213.883C129.787 213.883 129.612 213.883 129.436 213.883Z" fill="#A6ACBB"/>
<path d="M66.8493 240C46.2214 240 30.3852 238.139 20.7432 236.626C12.5622 235.347 6.66016 228.425 6.66016 220.165V217.78C6.66016 215.453 8.53011 213.592 10.8676 213.592C13.205 213.592 15.0749 215.453 15.0749 217.78V220.165C15.0749 224.237 17.9967 227.668 22.0873 228.308C31.437 229.821 46.8057 231.566 66.8493 231.566C84.9645 231.566 101.151 229.704 111.553 228.134C115.643 227.494 118.624 224.062 118.624 219.932V217.954C118.624 215.628 120.494 213.766 122.831 213.766C125.168 213.766 127.038 215.628 127.038 217.954V219.932C127.038 223.946 125.578 227.785 123.006 230.809C120.377 233.834 116.754 235.812 112.838 236.452C102.086 238.08 85.4319 240 66.8493 240Z" fill="#A6ACBB"/>
<path d="M40.9655 143.848C40.8486 143.848 40.7317 143.848 40.6149 143.848C35.005 143.383 31.5573 142.685 27.1746 141.871C25.6552 141.58 24.019 141.289 22.1491 140.94C19.8701 140.533 18.2923 138.381 18.7014 136.054C19.1104 133.785 21.2725 132.215 23.61 132.622C25.5384 132.971 27.1746 133.262 28.7524 133.553C32.9013 134.367 36.1737 134.949 41.3161 135.414C43.6535 135.589 45.3482 137.683 45.1729 139.951C44.9391 142.22 43.1276 143.848 40.9655 143.848Z" fill="#A6ACBB"/>
<path d="M66.7952 144.837C63.4059 144.837 60.0166 144.779 56.6273 144.663C54.2898 144.546 52.4783 142.627 52.5952 140.3C52.7121 137.973 54.6405 136.17 56.9779 136.287C60.2503 136.403 63.5812 136.461 66.7952 136.461C69.8338 136.461 72.9894 136.403 76.0865 136.287C78.4239 136.228 80.3523 138.032 80.4692 140.358C80.5276 142.685 78.7161 144.605 76.3787 144.721C73.2231 144.779 69.9507 144.837 66.7952 144.837Z" fill="#A6ACBB"/>
<path d="M92.0948 143.907C89.9327 143.907 88.0628 142.278 87.8875 140.068C87.7121 137.741 89.4068 135.705 91.7442 135.531C96.945 135.065 100.217 134.484 104.366 133.669C105.944 133.378 107.522 133.088 109.45 132.739C111.729 132.331 113.95 133.844 114.359 136.17C114.768 138.439 113.249 140.649 110.911 141.057C109.041 141.347 107.464 141.696 105.944 141.929C101.561 142.743 98.0553 143.383 92.4455 143.849C92.3286 143.907 92.2117 143.907 92.0948 143.907Z" fill="#A6ACBB"/>
<path d="M40.9655 162.695C40.8486 162.695 40.7317 162.695 40.6149 162.695C35.005 162.23 31.5573 161.532 27.1746 160.717C25.6552 160.426 24.019 160.136 22.1491 159.787C19.8701 159.379 18.2923 157.227 18.7014 154.901C19.1104 152.632 21.2725 151.061 23.61 151.469C25.5384 151.818 27.1746 152.108 28.7524 152.399C32.9013 153.214 36.1737 153.795 41.3161 154.261C43.6535 154.435 45.3482 156.529 45.1729 158.798C44.9391 161.066 43.1276 162.695 40.9655 162.695Z" fill="#A6ACBB"/>
<path d="M66.7952 163.684C63.4059 163.684 60.0166 163.626 56.6273 163.509C54.2898 163.393 52.4783 161.474 52.5952 159.147C52.7121 156.82 54.6405 155.017 56.9779 155.133C60.2503 155.25 63.5812 155.308 66.7952 155.308C69.8338 155.308 72.9894 155.25 76.0865 155.133C78.4239 155.075 80.3523 156.878 80.4692 159.205C80.5276 161.532 78.7161 163.451 76.3787 163.568C73.2231 163.626 69.9507 163.684 66.7952 163.684Z" fill="#A6ACBB"/>
<path d="M92.0948 162.753C89.9327 162.753 88.0628 161.125 87.8875 158.914C87.7121 156.588 89.4068 154.552 91.7442 154.377C96.945 153.912 100.217 153.33 104.366 152.516C105.944 152.225 107.522 151.934 109.45 151.585C111.729 151.178 113.95 152.69 114.359 155.017C114.768 157.286 113.249 159.496 110.911 159.903C109.041 160.194 107.464 160.543 105.944 160.776C101.561 161.59 98.0553 162.23 92.4455 162.695C92.3286 162.753 92.2117 162.753 92.0948 162.753Z" fill="#A6ACBB"/>
<path d="M40.9655 181.542C40.8486 181.542 40.7317 181.542 40.6149 181.542C35.005 181.076 31.5573 180.378 27.1746 179.564C25.6552 179.273 24.019 178.982 22.1491 178.633C19.8701 178.226 18.2923 176.074 18.7014 173.747C19.1104 171.479 21.2725 169.908 23.61 170.315C25.5384 170.664 27.1746 170.955 28.7524 171.246C32.9013 172.06 36.1737 172.642 41.3161 173.107C43.6535 173.282 45.3482 175.376 45.1729 177.644C44.9391 179.855 43.1276 181.542 40.9655 181.542Z" fill="#A6ACBB"/>
<path d="M66.7952 182.472C63.4059 182.472 60.0166 182.414 56.6273 182.297C54.2898 182.181 52.4783 180.262 52.5952 177.935C52.7121 175.608 54.6405 173.805 56.9779 173.921C60.2503 174.038 63.5812 174.096 66.7952 174.096C69.8338 174.096 72.9894 174.038 76.0865 173.921C78.4239 173.863 80.3523 175.666 80.4692 177.993C80.5276 180.32 78.7161 182.239 76.3787 182.356C73.2231 182.414 69.9507 182.472 66.7952 182.472Z" fill="#A6ACBB"/>
<path d="M92.0948 181.542C89.9327 181.542 88.0628 179.913 87.8875 177.702C87.7121 175.376 89.4068 173.34 91.7442 173.165C96.945 172.7 100.217 172.118 104.366 171.304C105.944 171.013 107.522 170.722 109.45 170.373C111.729 169.966 113.95 171.478 114.359 173.805C114.768 176.074 113.249 178.284 110.911 178.691C109.1 178.982 107.464 179.331 105.944 179.564C101.561 180.378 98.0553 181.018 92.4455 181.483C92.3286 181.542 92.2117 181.542 92.0948 181.542Z" fill="#A6ACBB"/>
<path d="M40.9655 200.329C40.8486 200.329 40.7317 200.329 40.6149 200.329C35.005 199.864 31.5573 199.166 27.1746 198.352C25.6552 198.061 24.019 197.77 22.1491 197.421C19.8701 197.014 18.2923 194.862 18.7014 192.535C19.1104 190.266 21.2725 188.696 23.61 189.103C25.5384 189.452 27.1746 189.743 28.7524 190.034C32.9013 190.848 36.1737 191.43 41.3161 191.895C43.6535 192.069 45.3482 194.164 45.1729 196.432C44.9391 198.701 43.1276 200.329 40.9655 200.329Z" fill="#A6ACBB"/>
<path d="M66.7952 201.318C63.4059 201.318 60.0166 201.26 56.6273 201.144C54.2898 201.027 52.4783 199.108 52.5952 196.781C52.7121 194.454 54.6405 192.651 56.9779 192.768C60.2503 192.884 63.5812 192.942 66.7952 192.942C69.8338 192.942 72.9894 192.884 76.0865 192.768C78.4239 192.709 80.3523 194.513 80.4692 196.839C80.5276 199.166 78.7161 201.086 76.3787 201.202C73.2231 201.26 69.9507 201.318 66.7952 201.318Z" fill="#A6ACBB"/>
<path d="M92.0948 200.387C89.9327 200.387 88.0628 198.758 87.8875 196.548C87.7121 194.221 89.4068 192.186 91.7442 192.011C96.945 191.546 100.217 190.964 104.366 190.15C105.944 189.859 107.522 189.568 109.45 189.219C111.729 188.812 113.95 190.324 114.359 192.651C114.768 194.919 113.249 197.13 110.911 197.537C109.041 197.828 107.464 198.177 105.944 198.409C101.561 199.224 98.0553 199.864 92.4455 200.329C92.3286 200.387 92.2117 200.387 92.0948 200.387Z" fill="#A6ACBB"/>
<path d="M113.774 35.3659H19.8676C17.5301 35.3659 15.6602 33.5045 15.6602 31.1778C15.6602 28.8511 17.5301 26.9897 19.8676 26.9897H113.774C116.112 26.9897 117.982 28.8511 117.982 31.1778C118.04 33.5045 116.112 35.3659 113.774 35.3659Z" fill="#A6ACBB"/>
<path d="M113.774 106.68H19.8676C17.5301 106.68 15.6602 104.819 15.6602 102.492C15.6602 100.165 17.5301 98.3037 19.8676 98.3037H113.774C116.112 98.3037 117.982 100.165 117.982 102.492C118.04 104.819 116.112 106.68 113.774 106.68Z" fill="#A6ACBB"/>
<path d="M49.9691 125.293C47.6317 125.293 45.7617 123.432 45.7617 121.105V103.131C45.7617 100.805 47.6317 98.9434 49.9691 98.9434C52.3066 98.9434 54.1765 100.805 54.1765 103.131V121.105C54.1765 123.374 52.3066 125.293 49.9691 125.293Z" fill="#A6ACBB"/>
<path d="M83.6722 125.293C81.3348 125.293 79.4648 123.432 79.4648 121.105V103.131C79.4648 100.805 81.3348 98.9434 83.6722 98.9434C86.0097 98.9434 87.8796 100.805 87.8796 103.131V121.105C87.8796 123.374 86.0097 125.293 83.6722 125.293Z" fill="#A6ACBB"/>
</svg>
