<svg width="28" height="25" viewBox="0 0 28 25" fill="none" xmlns="http://www.w3.org/2000/svg">
<path d="M0.0556641 19V0.388672H3.62305V10.2656L7.7998 5.51758H12.1924L7.58398 10.4434L12.5225 19H8.67578L5.28613 12.9443L3.62305 14.6836V19H0.0556641ZM14.3252 19.8887L18.4004 20.3838C18.4681 20.8577 18.6247 21.1836 18.8701 21.3613C19.2087 21.6152 19.7419 21.7422 20.4697 21.7422C21.4007 21.7422 22.099 21.6025 22.5645 21.3232C22.8776 21.137 23.1146 20.8366 23.2754 20.4219C23.3854 20.1257 23.4404 19.5798 23.4404 18.7842V16.8164C22.374 18.2721 21.0283 19 19.4033 19C17.5921 19 16.1576 18.234 15.0996 16.7021C14.2702 15.4919 13.8555 13.9854 13.8555 12.1826C13.8555 9.92285 14.3971 8.19629 15.4805 7.00293C16.5723 5.80957 17.9264 5.21289 19.543 5.21289C21.2103 5.21289 22.5856 5.94499 23.6689 7.40918V5.51758H27.0078V17.6162C27.0078 19.2074 26.8766 20.3965 26.6143 21.1836C26.3519 21.9707 25.9837 22.5885 25.5098 23.0371C25.0358 23.4857 24.401 23.8369 23.6055 24.0908C22.8184 24.3447 21.8197 24.4717 20.6094 24.4717C18.3242 24.4717 16.7035 24.0781 15.7471 23.291C14.7907 22.5124 14.3125 21.5221 14.3125 20.3203C14.3125 20.2018 14.3167 20.0579 14.3252 19.8887ZM17.5117 11.9795C17.5117 13.4098 17.7868 14.4593 18.3369 15.1279C18.8955 15.7881 19.5811 16.1182 20.3936 16.1182C21.2653 16.1182 22.0016 15.7796 22.6025 15.1025C23.2035 14.417 23.5039 13.4056 23.5039 12.0684C23.5039 10.6719 23.2161 9.63509 22.6406 8.95801C22.0651 8.28092 21.3372 7.94238 20.457 7.94238C19.6022 7.94238 18.8955 8.27669 18.3369 8.94531C17.7868 9.60547 17.5117 10.6169 17.5117 11.9795Z" fill="#FBFBFB"/>
</svg>
